07_script_ts.R
…
url <- "https://raw.githubusercontent.com/aterui/biostats/master/data_raw/data_ts_anormaly.csv"
(df_ts <- read_csv(url))

## Rows: 100 Columns: 2
## ── Column specification ────────────────────────────────────────────────────────
## Delimiter: ","
## dbl (2): anormaly, year
## 
## ℹ Use `spec()` to retrieve the full column specification for this data.
## ℹ Specify the column types or set `show_col_types = FALSE` to quiet this message.

## # A tibble: 100 × 2
##    anormaly  year
##       <dbl> <dbl>
##  1    0      1926
##  2   -0.560  1927
##  3   -0.791  1928
##  4    0.768  1929
##  5    0.839  1930
##  6    0.968  1931
##  7    2.68   1932
##  8    3.14   1933
##  9    1.88   1934
## 10    1.19   1935
## # ℹ 90 more rows
…
knz %>% 
  group_by(animal_sex,
           year) %>% 
  summarize(mean_weight = mean(animal_weight, na.rm = T)) %>% 
  ungroup()

## `summarise()` has regrouped the output.
## ℹ Summaries were computed grouped by animal_sex and year.
## ℹ Output is grouped by animal_sex.
## ℹ Use `summarise(.groups = "drop_last")` to silence this message.
## ℹ Use `summarise(.by = c(animal_sex, year))` for per-operation grouping
##   (`?dplyr::dplyr_by`) instead.

## # A tibble: 38 × 3
##    animal_sex  year mean_weight
##    <chr>      <dbl>       <dbl>
##  1 F           1994        700.
##  2 F           1995        826.
##  3 F           1996        733.
##  4 F           1997        775.
##  5 F           1998        714.
##  6 F           1999        774.
##  7 F           2000        741.
##  8 F           2001        796.
##  9 F           2002        757.
## 10 F           2003        705.
## # ℹ 28 more rows
…
